FEED IMPLEMENTATION UPDATES
=========================

1. Pagination Implementation
---------------------------
Added StandardResultsSetPagination class:
```python
class StandardResultsSetPagination(PageNumberPagination):
    page_size = 10
    page_size_query_param = 'page_size'
    max_page_size = 100
```

Key features:
- Default page size: 10 posts per page
- Configurable page size via query parameter
- Maximum page size limit: 100 posts
- Consistent pagination across all post-related endpoints

2. Feed Query Updates
--------------------
Updated the feed query to use the Follow model correctly:
```python
# Get users that the current user follows
following_users = User.objects.filter(
    follower_relationships__follower=request.user
)

# Get posts from users that the current user follows
posts = Post.objects.filter(
    author__in=following_users
).order_by('-created_at')
```

Key changes:
- Uses follower_relationships instead of direct following relationship
- Properly filters posts based on following relationships
- Maintains chronological ordering (newest first)

3. Error Handling
----------------
Added comprehensive error handling:
```python
try:
    # Feed query logic
    page = self.paginate_queryset(posts)
    if page is not None:
        serializer = self.get_serializer(page, many=True)
        return self.get_paginated_response(serializer.data)
except Exception as e:
    return Response(
        {'detail': str(e)},
        status=status.HTTP_500_INTERNAL_SERVER_ERROR
    )
```

Features:
- Try-catch blocks for error handling
- Proper error response format
- HTTP status codes for different scenarios
- Detailed error messages

4. Response Format
-----------------
The feed endpoint now returns a consistent paginated response:
```json
{
    "count": 100,  // Total number of posts
    "next": "http://api.example.com/api/posts/feed/?page=2&page_size=10",
    "previous": null,
    "results": [
        {
            "id": 1,
            "content": "Post content",
            "image": "http://api.example.com/media/post_images/image.jpg",
            "created_at": "2024-03-20T10:00:00Z",
            "updated_at": "2024-03-20T10:00:00Z",
            "author_username": "username",
            "author_user_id": 123,
            "author_profile_id": 456,
            "likes_count": 5,
            "reposts_count": 2,
            "comments_count": 3,
            "is_liked": true,
            "comments": []
        }
    ]
}
```

5. Performance Optimizations
---------------------------
1. Efficient Querying:
   - Uses proper database relationships
   - Minimizes number of database queries
   - Uses appropriate indexes

2. Pagination Benefits:
   - Reduces data transfer
   - Improves response time
   - Better memory management

3. Caching Considerations:
   - Feed data can be cached
   - Cache invalidation on new posts
   - Cache timeout strategies

6. Security Updates
------------------
1. Authentication:
   - Requires valid JWT token
   - Proper permission checks
   - User-specific data access

2. Data Access:
   - Only shows posts from followed users
   - Proper user context in serializers
   - Secure error messages

7. Frontend Integration
----------------------
The updated API supports:
1. Infinite scrolling
2. Pull-to-refresh
3. Pagination controls
4. Error handling
5. Loading states

8. Testing Considerations
------------------------
Test cases should cover:
1. Pagination functionality
2. Following relationships
3. Error scenarios
4. Empty feed cases
5. Performance metrics
6. Security aspects

9. Migration Notes
-----------------
1. Database Changes:
   - No schema changes required
   - Uses existing Follow model
   - Maintains backward compatibility

2. API Changes:
   - Added pagination parameters
   - Updated response format
   - Enhanced error handling

10. Best Practices Implemented
----------------------------
1. Code Organization:
   - Clear separation of concerns
   - Consistent error handling
   - Proper documentation

2. Performance:
   - Efficient queries
   - Proper indexing
   - Pagination implementation

3. Security:
   - Authentication checks
   - Data access control
   - Secure error handling

4. Maintainability:
   - Clear code structure
   - Consistent patterns
   - Proper documentation

Remember to:
- Test thoroughly after implementation
- Monitor performance metrics
- Handle edge cases
- Maintain proper error logging
- Update API documentation
- Consider caching strategies
- Monitor database performance 